<svg width="50" height="67" viewBox="0 0 50 67" fill="none" xmlns="http://www.w3.org/2000/svg">
    <rect y="27" width="50" height="40" fill="#000"/>
    <circle cx="25" cy="15" r="15" fill="#000"/>
</svg>
